Request body is :{
    "name": "morpheus",
    "job": "leader"
}

End point is :https://reqres.in/api/users

Response body is :{"name":"morpheus","job":"leader","id":"639","createdAt":"2023-11-29T08:39:24.482Z"}